Lab01_Parte2
…
Assim podemos observar que uma sries curtas como Sherlock possui alta popularidade mesmo tendo somente 4 temporadas. J Black Mirror teve um crescimento alto de pblico no decorrer das suas 3 temporadas. American Horror Story apesar de ser relativamente longa (6 temporadas) possui um pblico com pouca variao, assim como Penny Dreadful q alm de possuir um nmero pequeno de temporadas (3) tem tambm um nmero pequeno de avaliaes. Sabendo que Sherlock e Penny Dreadful foram finalizadas enquanto American Horror Story e Black Mirror no, no  possvel relacionar a longevidade da srie com o nmero de avaliaes da mesma (popularidade)

2) Os episdios que recebem mais votao so episdios mais amados ou mais odiados ?

Organizamos os dados em um sumrio contendo o mximo valor dos votos de usurios separadas por episdios das temporadas (season_ep).

sumarios = series %>% 
    group_by(series_name, season, season_ep, user_rating, r1, r10) %>% 
    summarise(max_vote = max(user_votes))

sumarios 

## # A tibble: 128 x 7
## # Groups:   series_name, season, season_ep, user_rating, r1 [?]
##              series_name season season_ep user_rating         r1       r10
##                    <chr>  <chr>     <dbl>       <dbl>      <dbl>     <dbl>
##  1 American Horror Story      1         1         8.2 0.01937407 0.2831595
##  2 American Horror Story      1         2         8.2 0.02208000 0.3072000
##  3 American Horror Story      1         3         8.2 0.01856843 0.2770291
##  4 American Horror Story      1         4         8.4 0.01795020 0.2518819
##  5 American Horror Story      1         5         8.3 0.02461859 0.3515950
##  6 American Horror Story      1         6         8.2 0.02479339 0.3499820
##  7 American Horror Story      1         7         8.2 0.03417635 0.3038278
##  8 American Horror Story      1         8         8.2 0.02134757 0.3032021
##  9 American Horror Story      1         9         8.1 0.02166554 0.2782668
## 10 American Horror Story      1        10         8.6 0.02762827 0.2798708
## # ... with 118 more rows, and 1 more variables: max_vote <dbl>
…
